{
  "name": "fundus-pyro-demo",
  "version": "1.0.0",
  "type": "dime-gui-plugin",
  "description": "Pyro as a fundus package",
  "authors": [
    "Yannick Eckey <yannick.eckey@tu-dortmund.de>"
  ],
  "license": "MIT",
  "repository": {
    "type": "git",
    "uri": "https://gitlab.com/scce/pyro"
  }
}
